{
    
    "data":[
        {
            "category":"百家乐",
            "main":[
                    {
                    "title":"时间、心态、资本，控管自己才能赢百家乐！",
                    "content":"玩家在玩百家乐之前一定要先制定好自己的下注筹码，无论是资金还是筹码的使用，都必须要有一个正确的规范，让自己不会因为冲动而发生后悔的状况。如果能够制定好资本的管理以及止赢止损的目标，这样一来才能够保住自己的盈利，让自己的损失化为最小，长期游戏下来更能拥有不错的盈利面。当排场上出现下风的状态时，玩家千万不要做出负追的动作，就算是之前已经失去了不少盈利，也千万不要急于想要挽回，越是拥有这种心情，就越容易输得更多，不想要清袋离开，那就要禁止这种状况发生！如果当天的状况不佳，盈利已经都输了回去，那就要适时的休息并且果断地离开牌桌，想要再次入场就不要太心急，因为越急的心情越容易发生判断失误的状况。倘若当天的盈利不错又有好的局势，那么可以试着加注以求更多的利润，但是千万要记得止赢，不要让自己赢来的在最后都输了回去。每天的游戏时间一定也要控管，不要在体力以及精神疲倦的时候进行游戏，因为这种时候很容易恍惚，更不能好好思考自己的每一个决策。"
                },{
                    "title":"时间不多的玩家该如何选择百家乐的游戏方式？",
                    "content":"许多玩百家乐的玩家都并非专业，他们只是利用工作之余来玩百家乐，所以这些业余玩家并不能像专业玩家一样，不过业余玩家玩百家乐是否也能获利呢？我想不论是业余还是专业，玩家们无法获利的原因都是没有细心的好好规划游戏的策略，玩百家乐只是依靠自己的运气来投注，事先都没有好好制定策略，最后当然就只能把资本双手奉上给赌场，口袋空空的离开。其实玩百家乐如果越是想要赢钱就越不回赢，而越是期待赢钱往往失望也就越大，这完全是由于心中有极高压力的紧张感，唯有放松心情享受赌博的过程，如此一来才可能会获得盈利。想要赢百家乐的最好的投注方法，非赢冲输缩莫属了。通常业余的玩家时间都不是非常的充足，没有很多时间可以慢慢找路，所以必须要快狠准，所以利用减注法来辅助玩家下注，应该对赢钱非常有帮助，玩家只要控制好自己的注码，并且在有限时间内提高自己的赢面，根本不用担心在短时间内输光口袋中的钱，当然玩家的注码最好要分成多份来下注。"
                },{
                    "title":"减注法，业余百家乐玩家好选择",
                    "content":"若玩家想要使用减注法来下注，那么在一开始第一注可以依照自己的状况来下注码，随之慢慢减低筹码，并设定一个循环，当循环结束后在回到第一次下注的注码，在继续下一个循环。例如当第一注下注4个筹码，第二注下注2个筹码 ，第三注下注1个筹码，第四注循环回第一注的下注方式，以此类推持续进行。当然玩家也一定要订好停下来的时间点，在下注的期间玩家可以利用利润，好好使用减注法投注。当然赌博都是有输有赢，有时候运气不好连输四回也是有可能会发生的事情，既然玩家无法改变运气，那么我们便可以选择离开，让自己留有资本，不要执着于场上输光在离场。如果业余的玩家时间不多，试试看检注的下注方法，如此一来除了让你可以在短时间内获得盈利以外，更可以让你满足想要玩百家乐的心情，切记一点，当自己运气不再，资本不足有减无增，那就考虑让自己休息或离场吧！人家说休息是为了走长久的路。"
                },{
                    "title":"该怎么使用百家乐的保险投注法？",
                    "content":"百家乐里的保险投注，他的投资原理比较像对冲的行为，跟21点与德州扑克相比，在百家乐游戏里使用保险投注，玩法更加的灵活。玩家在下注之后，取得比对手高的点数时，便可以依照规定的比例来额外增加一注“保险”的投注金额，一般最高的保险金额与下注的金额相同。为了使这个保险方式更加多元化，玩家可以依据自己所狗买的那一方来购买，并且降低对手在博牌之后全数赢走自己筹码的风险。*“庄保险”，当庄的手两张牌加总的点数大过于闲，那么闲家则必须博牌，庄家为了降低闲家博牌后胜出的风险，便可以购买“庄保险”，最低投注以下注的金额为最高限制，倘若最后的结果由闲获胜了，那么“庄保险”这边也胜注,；倘若是庄家获胜“庄保险”则输；而适合的话“庄保险”也即为和。*“闲保险”，当闲家最后点数大于庄家，那么庄家则可博牌，闲家需要下注购买。“闲保险”。最后结果倘若是庄家获胜，那么便是“闲保险”胜注，如果是闲家获胜，那么“闲保险”则输。而最后结局若为八点或以下的和，那么“闲保险”则为和注，当闲家最后三张牌加总为九点的时候，结局还是由庄家博和，并且算“闲保险”胜注。上述即为百家乐的保险投注方法，玩家若想要使用，只要使用得当便能够有效的赢钱，希望玩家都能够从中找寻可以致胜的关键。"
                },{
                    "title":"百家乐投注技巧：翻倍投注",
                    "content":"翻倍投注是常被各地的玩家所使用的技巧。举例：玩家的基码为$100，当第一局输了之后第二回下注的金额便是上一局的两倍$200，当第二回又输下第三局的时候，便是第二局的两倍$400，当一回来了就把注码减低成原有的$100，这种技巧虽然赚得比较慢，但是不管玩家输了多少回，只要赢一局就能马上回本。当然这种方式还需要高额的资本财能够实行。许多玩家说这是百家乐必胜的技巧，但是赌桌也有破解的方式，每张赌桌都有限制加注金额，所以当达到上限的时候那就不能够再加注了。玩家们不管使用哪一种博彩技巧，千万都要记得顾忌自己的自身状况，并且在游戏场上灵活运用。"
                },{
                    "title":"百家乐最高境界技巧：单注技巧",
                    "content":"想要使用单注技巧的玩家，心态需要非常非常的好，并且要有十足信心以及完善的心理建设。单注技巧顾名思义就是将规划好的资本做一次性的投注，当然这些资本必须是玩家所使用的上限金额，无论输赢每天就只投注这一次，所以使用这方技巧的玩家需要拥有绝佳的心态，并且赌不成痴的玩家才可以使用这方式。当使用单注技巧的玩家必须要记住以下三点重点：１　必须要对百家乐及开出的路数有绝佳把握，这点需要靠经验的累积才有办法达到。２　玩家绝对不能嗜赌成痴，还不能担心盈亏，输得起才赢得回，当然这必须要对百家乐的路数以及规则掌握得非常好，这样一来就能出现较少的亏损状况。３　既然玩家不担心盈亏，那么便不能拥有贪心的心态，因为这是用了大资金一次做了赌注，所以就算中了也不能持续的投注，当头注小的时候也不能使用这种方式，毕竟继续投注便容易影响到心态。"
                },{
                    "title":"百家乐常见买法之输一买二及进阶买法",
                    "content":"这是赌场当中最为常见的买法，不过此方又特别适合用在「百家乐」，方法非常简单，单纯就是买庄或者是买闲，输一就买二，只要一赢就停手。由于只有4种组合的可能性：赢赢、赢输、输赢还有最惨的输输，因为只要输了就必须加买到二，所以如此结算下来之下只有最后会将那半输掉而已，但是这种方式是属于消极性的买法，因此最后结算下来不是一定能够真的赚到钱，但是有些百家乐现金网都会提供玩家一些红利回馈活动，只要有红利就算玩家用输一买二的玩法来下注，依然能够赚进许多的红利，就算真的最后亏钱了其实也没亏多少就是了。进阶买法～选择铺牌手路。「百家乐」这个游戏简单一点来说，就是一种押庄或者是押闲的游戏，因此会建议玩家从了解哪门较为旺当作首要目标，小编建议大家每次观察以二十手牌作为单位来进行分析，在现金网的百家乐游戏当中，玩家本身并不需要做纪录，只要通过察看画面的上方写路就能够知道现在庄闲家是不是正处在旺门，或是是正值交替转换时刻，若说正值交替转换，那么玩家千万别跟着改，原因就是若是装二闲二甚至于是庄一闲一的变化之下，那么我能保证玩家肯定很难跟到庄闲，倒不如先通过看看写路最近二十手之间颜色多寡来当作参考。通常来讲，「百家乐」每二十手的庄闲变化大概是 1:1 从这里能够判定接下来两局庄闲之间变化的可能性。"
                },{
                    "title":"百家乐每一张牌桌不宜投注超过5次",
                    "content":"很多玩家都会在在线玩百家乐游戏，大部分的玩家都是使用追龙或反追的方式，而且一直追到出现或者清袋才会停止，这样的投注法长期使用下来，往往都注定会失败。在玩在线百家乐玩家可以注意一些放是，这样的方法或许可以让你们可以转败为胜！１　耐心观察牌桌的路数。２　不要每局下注，找到自己判断觉得对的时机再来下注。３　每一张牌桌不宜投注超过5次，倘若四注内任何一注赢了或者连输的状况，都应该要坚决离场，赢的时候表示可能运气会没有，所以快点换桌让运气持续，而连输可能表示这张桌的气势与你不合，所以没有必要继续在这里玩下去，而在休息的同时也可以调整自己的心态。４　牌局的尾端都不应该要持续下注。５　在每次要在牌桌上下注前，可以先观察再进行投注，当自己在观察的时候有赢的话，那么这张牌桌便能出击。虽然以上的方法可能无法长期获得胜利，但是只要合理的使用，应该还是可以获得一些小小的收获。"
                },{
                    "title":"百家乐谋略技巧，注码风险一把抓",
                    "content":"以下有三招，是小编集合了许多玩家们的经验，所总结的百家乐谋略技巧！一　不要执意投注赢率高的那一方  玩百家乐的玩家都知道，在百家乐过程当中，赢率最高的就是投注庄了，可是在整个过程里都投注庄却未必拥有高额的盈利；所以在策略上不要执意投入某一边，想要以这样的策略来赢，是不可能会被实现的。二　灵活运用注码法  百家乐的投注技巧当中是没有必胜的方法，玩家们必须要注意注码的使用才对。牌的走势是无法被我们控制的，所以我们更要控制好自己手中握有的筹码，当牌势旺的时候便可以大胆的加码下注，当然当情势急转直下时，那要适时的收手，这样一来才不会让自己输得太多。运势也分为旺与弱两种状况，所以只要掌握自己的运势变就是赢家。 三　风险控制 收益越高就代表风险也越高，要怎么样控制风险，就取决于玩家本身的资金以及时间的运用，下注的注码是多少，游戏时间多长，都能让风险变高或变低；当玩家学会调整自己下注的注码，那风险变自然也能降低，而游戏时间也最好要控制在一定时间内，当然时间越长输的也就越多，也就代表风险越高。"
                },{
                    "title":"百家乐的投注技巧之一「五次一小局」賭友不可不知道!",
                    "content":"「五次一小局」是一种百家乐「切割赌局」的做法，目的是让赌客在赌局进行中不会茫然无头绪。我们应该事先就规划好下一个5次牌局的筹码，第一次输，第二次该如何下注；第二次如果赢了 ，第三次又该如何应对？……等等。无论赢在哪一次或是输在哪一次，五次的投注额都在事先的规划中， 那么，这五次最好的结局和最糟的状况你都已了然在心，小输小赢也掌握在状况之内，如此你才有稳健的投注脚步，情绪也不会大起大落。「五次一小局」运用在加码时机和额度，更是百家乐赌客不可或缺的赌技之一。每玩五次我们就检查自己是否可以开始加码？如果已经到了加码的时机，那就不能再等了 ！一定要加码！否则你永远都无法胜过赌场！「加码」是最容易让人心浮气燥的时候了 ，输赢越大， 大多数人此时越无法心平气和。所以，当我们启动加码机制时，「五次一小局」更是必须严加遵守的美德。百家乐赌客如果无法设定一个段落，然后逐段分批进行、管理， 赌局进行中那股排山倒海而来的压力冲击着你，平常心成了奢谈，焦躁情绪永无转圜余地。你事先不知道玩到第几次就结算一次输赢，然后再为下一个「五次一小局」作准备，那种边走边打的玩法绝对赢不过气定神闲的荷官和赌桌一列排开、日夜等候挑战的赌场。"
                },{
                    "title":"百家乐中的投注方式「二星级加码」!经典实例大解析",
                    "content":"百家乐中的「二星级加码」再利用小小篇幅解释一下：(+4〕我建议各位启动「二星级加码」，碰上最糟糕的状况（连输5次）会从（+4〕变成（-3〕。 加码时立刻惨遭毒手，连输5次！从〔+4〉变成（-3〕，这种落差对职业玩家并不会造成重伤害〔这一点相信大家都会同意），其它失手的状况也都是在可容忍范围之内，我们的心境就不至于突遭乱流。相较那些随兴加码，却不知道失败之后会有多惨的赌客，我们的出手一路沉稳，赌场很难在你身上讨到便宜。别小看这种心理上的差距，能够在百家乐一路赢钱的人一定都有精准的加码观念，缺乏这种运作逻辑，高兴加多少就加多少的人终究还是失败者。 加码后只要又有小收获，从〔+4〕变成〔+6〕，那你就可以再调高为「三星级加码」，假设在这节骨眼连输五次， 也只是从〔+6〕变成（-3〕，这种落差都不是无法容忍，而是每位百家乐玩家必须要有的心理准备。甚至在后续赌局中一路拉到〔+12〕时，「六星级加码」可就要上场了 ，后面五次只要不是输得惨兮兮都可以保留若干战果，可以一路缠斗， 甚至一鼓作气赢来好几场的赌资。"
                },{
                    "title":"百家乐的规则化的投注方法之一Grade-up，你知道是什么玩法吗",
                    "content":"Grade-up如果翻成中文应该是「楼梯式」、「楼梯缆」比较传神、贴近。各位应该可看出投注额呈现「阶梯式」的向上趋势。第一次(1)，第二次就加上2 '变成〔1十2 =3〕。第三次加上3 '变成(3十3 = 6〕。第四次加上4 ，变成〔6十4 = 10〕。以此累进，一直到第十次变成〔45十10 =55〕。表格中我把它列举到第10次，只是为了方便解说投注额变化的准则。后续的解说只到第5次。操作Grade-up最好只到第5次〔15〕，跨过这条线就相当危险，不宜尝试。 投注方式： 输进臝退，第一次下(1)，输的话第二次就下(3)， 再输第三次就下(6)……以此累进。 中途如果赢一次，那就退回一步。如果在第四次(10)赢，第五次就回到(6)。再次臝，又回到(3)。如果退回(6)再输一次，则继续往前进一歩，下一次进到（10），赢的话再回到(6)，输就继续再前进到（10）。如此反复前进、后退，一直回到(1)。 Grade-up其实只是Martingale的另一种「变型」罢了，根本就不是什么仙丹妙药。两种赌法相近，只不过是Grade-up比Martingale风险更低。但这种赌法如果运用得当，确实是不错的选择，值得探讨！"
                }
            ]
        },
        {
            "category":"轮盘",
            "main":[
                    {
                    "title":"轮盘数字重复押注方法",
                    "content":"真钱轮盘数字重复押注方法是在最近四局出现数字重复现象的四个号码上押注，每注押一块赌牌(最后一次开出的数字也列进去)。这套方法的根据是轮盘数字不规则的重复，有时会很快的重复开出，甚至连续开出几次。而其它的数字可能等很久都没出。下注前你要注意开球纪录，一定要选择有数字被重复打中过的４局。使用此方法，若你连续输两局则退出。需要准备的本钱至少为１００ 美金 (若一块赌牌等于５ 美金).若输了，你可能输掉本钱 １００美金，或者其中一部分。若赢了，你将赢得32 块赌牌(赔率35减掉 3块你输的，还有一块为打中的数字当下一局的赌钱).如果你的赌资小，可以用值小的赌牌。但如果以５美金赌牌来玩，你可赢得１４５美金(亦即１００美金的本 赚得 ４５美金) 。你还有 ２０美金当下一局的赌资。若这次又赢了，整个游戏重回第一步骤。举个例子： 你先观察轮盘开出结果，假如开出１１。先不用押注，先等。第二局出１６，继续等。第三局结果为 ２９，还是等。第四局是６。已经进行了４局，但还没有数字被重复，你还要继续等。接下来的一局打中２９ (已经出现重复的数字)...这时你可以开始了。在１１,１６,６,２９这几个数字上每个押一块赌牌 (将第一次打中的２９去掉，把它写在这一组的最后)。下一局开出９，你输了。因此接下来你押１６,６,２９,９ (同样每个数押1块赌牌)。打中６，你赢了，净赚３２块赌牌，加上留在数字６上的一块。接下来押注在1６,２９,９,６这一组。打中１２，你输了。接着押２９,９,６,８(去除第一个数，保存最近一次开出的数字)。开出１７，这一组数字连输两次，依上述方法你要退出。但其实还是有赚了些赌牌啊。"
                },{
                    "title":"众多玩家最喜爱屡试不爽的轮盘三大方法",
                    "content":"◎方法一：区域下注法 轮盘游戏基本大同小异，数字按0~36红黑区分，也有按区域区分，但大部分公司的轮盘游戏按区域下注区分。经长年累月分析所得：若使用区域下注法，较容易锁定数据，如0区五个号码 （0、26、3、35、15），若球落该区域，基本笃定该区域独拔红筹。 ◎方法二：分类下注法 把除了0之外的36个数字分成四类： 大黑（20、22、24、26、28、29、31、33、35），小黑（2、4、6、8、10、11、13、15、17） 大红（19、21、23、25、27、30、32、34），小红（1、3、5、7、9、12、14、16、18） 当路子出来时，就按照这样的方式分类下注，如此一来就非常容易中奖。 ◎方法三：跟注法 专家应用该法试验屡试不爽，结果都相同，因为有人认为轮盘有作弊的嫌疑，经常连续很多期开出的数字都是那几个，害很多人往往中不了。"
                },{
                    "title":"轮盘十拿九稳的下注技术：一打法",
                    "content":"相信大家对真人博彩在线游戏并不陌生，多数玩家认为三分太注定就此认为博彩就是靠运气，其实这样的认知并无错，确实博彩在博彩游戏中，运气成分较高，但也不是三板斧。真金白银玩轮盘游戏，需掌握一些基本规则和技巧，并举一反三，融会贯通。轮盘一打法的规则是以1、3、9、27、81 ... 等的3倍下注法，只要押对一次，就可以赚到一把，实际上的押法规则是：首先在三个一打下注区各押一把，只要轮盘数字不出0，就表示不赚也不赔，以后的每一次下注，都押前一次所出的一打下注区，就是前一次出一区的双本次押二三区，前一次出二区双本次押一三区，每一次都从一把开始押，若不中，下次翻3倍，若中了下次再重新从一把开始押。"
                },{
                    "title":" 挑战最疯狂的轮盘平均押注法",
                    "content":"1.分析轮盘红黑走势图，准备200元幸运金，押第一打其中一个号码40元，押第二打其中一个号码40元 2.下注5元红色分注（9/12）&下注5元红色分注（8/11） 3.押注5元角注（2/3/5/6） 始终都保持着 outside和 inside对比40/5＝8的倍数，因为有超过2/3的赢钱机率，是非常赚钱的，准备200元的用意就是，可以保持两次不超过2/19的连续输钱机率，押注总额为90元，然而每次赢30元，回报非常可观，在每次的 inside 和角注的押注都要考虑红黑走势，然后以36次的押注当作一个基本的押注周期，只要有一个周期没有赢钱，就立即退出，0如果出现两次以上也要退出。 要是遇到运气不错，累积赢了十次，赢得500元之后，区间押注80元，额外 inside 押注各10元，总金额180，400，保证连续两次失误也不会输钱，这时候就可以每次都赢60元，这个方法若赢了十次，累积有1100元的时候，就可以考虑离开了，或是您可以等到赢了2000元在走也行。"
                },{
                    "title":"轮盘「二龙抢宝」的投注技巧",
                    "content":"轮盘中有一个叫做「二龙抢宝」的技巧，此技巧的心法是：戒急用忍，厚积薄发；技巧运用的方法是：当1~34、2~35、3~36这三条在线有出现一个重复数时，就可以设置ABC三条线（第一列，第二列，第三列）。 例如：A线1、4、7、10、13、16、19、24、25、28、31、34  B线2、5、8、11、14、17、20、23、26、29、32、35  C线3、6、9、12、15、18、21、24、27、30、33、36  首先以1~34这条A线当例子，假设前面开出1号，接着又再开出19号，就是重复在A在线，在这条A线的最后面放置一个基码，接下来在A线和C线这两条在线的最后面加倍基码，如果中了就停止，耐心等候下一次同样的情形出现，在使用第一次的方法用基码下注，假如没有中，也要停止，耐心等候下一次同样的情形出现，在用更大倍数的基码下注，然而下一次重新开始时，在用最小的基码下注，如果是输，就用耐心在等候下一次同样的情形出现，以此类推。"
                },{
                    "title":"轮盘最实用的技巧就是乘以3+1的下注法",
                    "content":"什么是「一打法」？一打法又称3+1下注法，就是以1、3、9、27、81……等的3倍下注法去赌，只要有押对一次，就可以赚到一把，实际上的押法是，刚开始先在轮盘三个一的数字上各押一把，只要0不出，表示不赚也不赔，往后的每一次下注，都只押前一次所出的一打下注区，其他另外两区等额的下注，此方法和单双法一模一样，只要赢一次就赚一把，想要平均一次就赢一把的技巧，可以利用乘3+1下注法，1、4、13、40、121、……等。其实单双法和一打法很相似，看玩家喜欢用哪一种方法，透过以上的战略解析，聪明的玩家们就会知道，这些战略在轮盘游戏中是非常有帮助的，因此，对于爱玩轮盘游戏的玩家们，一定要来本站多学习轮盘机的高招技巧，绝对可以帮助您在轮盘游戏中获得最高的胜利。"
                }
            ]
        },
        {
            "category":"骰宝",
            "main":[
                    {
                    "title":"骰宝高中下三风险下注策略",
                    "content":"常言道“熟能生巧”，只要在游戏实战中灵活应用骰宝游戏技巧，善于总结经验教训，那么打败庄家成为大赢家就不是梦想。很多人认为骰宝游戏是一种靠运气的游戏，没有什么技巧可言；而且掷骰子游戏给庄家的优势太大，闲家很难赢钱。这种说法显然有欠说服力，更不能解释骰宝为什么广受玩家的喜爱。其实，骰子的点数归属是个概率问题，这就是其中科学的成份，自然也就有规律可循了。这里特推荐几条实用骰宝游戏技巧。 1.骰宝游戏低风险下注策略 采取低风险下注策略，就是尽量在庄家优势小的押注区域下注，比如押大小（庄家仅有2.78%的优势）和押数字。这种策略尤其适合新手，既简单易学易掌握，又不会因为运气不济而输很多钱。当然，低风险也就意味着低回报，所以玩熟了以后应该考虑回报更高的骰宝策略。 2.骰宝游戏中等风险下注策略 中等风险的骰宝下注策略比较适合想赢大钱但又不想冒太大风险的玩家。这种骰宝策略主要是采用组合押注而增加赢钱的机会。举例而言，如果两个骰子结果为1点，那么三个骰子的总和可能是 3，4，5，6，7或8，不可能是9，10，11或12。所以如果你在总额大于8的区域下注，不妨在对1里也下一注，这样猜中的可能性更大。如果你想押总额的话最好压9，10，11或12，因为这几个总和的组合最多，押中的概率最大。下面的投注策略是一个不错的选择： (1) 在总和为9区下3个注码，在对1、对5、对6各下两个注码（共下9个单位的注码） (2) 在总和为12区下3个注码，在对1、对2、对6各下两个注码（共下9个单位的注码） 为什么这样下注呢？如果猜中总和，则赢18注码；如果猜中对子，则赢20注码。这个回报是比较高的。当然，如果猜不中的话则要输掉9个注码，可见风险也比较高。因此，这种下注策略对风险有一定承受能力的玩家，也就是那些对骰宝游戏已经熟悉而不满足于玩大小的玩家。 3.骰宝游戏高风险下注策略 在你遇到吉星高照时，不妨采用高风险的骰宝下注策略。高风险往往意味着高回报，尤其是在运气好时，你对风险的承受能力也相对提高了。高风险下注策略与上面的中风险策略一样，还是以骰子总点数和对子组合押注，当骰子总和为8时，不可能出现对4、对5或对6，但可能出现对1、对2或对3，我们可以这样下注： （1）在总和为8区下3个注码，在对1、对2、对3各下两个注码（共下9个单位的注码） （2）在总和为13区下3个注码，在对4、对5、对6各下两个注码（共下9个单位的注码） 之所以这样下注，是因为如果猜中总和，则赢24注码；如果猜中对子，则赢20注码；如果都猜中，则赢44注码。可见高风险骰宝策略的回报是非常高的。"
                },{
                    "title":"教您如何玩转骰宝",
                    "content":"骰宝是一种古老的中国骰子游戏，一般般称为赌大小，是由各闲家向庄家下注的一种用骰子赌博的方法。下面介绍几种方法跟大家一起分享： 赌大小是靠赔率计算的，越多人参与买越多的投注项目，荷官可控的几率就越小，我们的赢面就越大。所以下注人少的桌台我们不要去。 到了人多的台，就要分析下注金额，一般是先摇骰子后下注买定离手最后开盅，我们要和荷官的思路一致才可以分析到其所想，才可果敢赢钱。所以要先分析下注情况。一般赌大小是1赔1，金额不大，主要是看押点数的赔率，比如说你注意到很多人押大，而且还押高赔率的大点数，根据理赔原理，我们自然要下注相对的小及小点数小赔率，则赢面的收益率将会大于0。 下注时机要把握。因为荷官和你一起也在看台面的下注情况，他也在分析，等买定离手的时候他就会有一个确定的开盅情况，这个时候我们就要最后一刻下注！ 拿豪客探路。遇见有出手阔绰一掷千金的时候，我们前几把先不玩，要先观察荷官的反应，一般会先让其赢几小把，然后就会让其输到痛，等看到豪客开始输的时候，赶紧他买大，我们就一定买小。这个时候下注要快。"
                }
            ]
        },
        {
            "category":"其他",
            "main":[
                    {
                    "title":"常见的德州扑克三大游戏方式介绍",
                    "content":"在网络上的在线德州扑克室里面德州扑克常见有三大类：有限下注桌(Limit Texas) ;押注限制桌(pot limit),无限下注桌(No-Limit)。 第一类: 有限下注德州扑克(Limit Texas) 指的是每一轮下注过程中，最高下注额的限制是一定的。以2-4有限下注德州扑克作为例子：2跟4这两个数字就是最低下注额，2就是第一轮和第二轮下注的最低下注额为$2，4就是第三轮和第四轮下注的最低下注额为$4，每一轮下注的过程最多仅能加注三次，第一轮和第二轮下注的过程每一次加注只能加$2，譬如第一个玩者下注$2，而第二个玩者加注仅能为$4，第三个玩者加注仅能为$6，然后第四个玩者加注仅能为$8，$8就是这一轮的最高下注额，在后面的玩者仅能跟注不能再加注；还有第三轮和第四轮下注的过程中每一次加注仅能为$4，例如第一个玩者下注为$4，而第二个玩者仅能加注$8，第三个玩者仅能加注$12，然后第四个玩者仅能加注$16，亦即这一轮的最高下注额是$16，在后面的玩者仅可以跟注不可以再加注了。和3-6，4-8，10-20，50-100有限下注德州扑克下注过程的限制是相同的，只有最低下注额不一样而已。 第二类: 押注限制德州扑克(pot limit) 是指每一轮下注的过程，下注额的限制是一定的，如果您想要加注，最多的加注额仅能为桌面玩者下注额的总额。 第三类: 无限下注德州扑克(No-Limit) 指的是每一轮下注的过程，下注额没有一定的限制，不过如果您想要加注，最少的加注额必须为您前面的玩者下注额的两倍。譬如您前面的玩家下注额为$10，您可以加注到$50，您在后面的玩者如果想要加注，则最少的下注额必须为$100，当然他的加注额也可以到$200 或者$500。所以可以说无限下注德州扑克为一种风险更大而更具有挑战性刺激性的游戏。"
                },{
                    "title":"德州扑克秘籍:实际战斗之口诀篇 ",
                    "content":"德州扑克的规则相当简单，而且也很容易掌控，不过若想真正玩的精通还是有一定难度。因此真正想要成为一位优秀的德州扑克玩家，不单得要掌控基础的攻守策略，还必须能够随时认清对手的各式玩牌伎俩，依据不一样的对手，而且随时采取不一样的策略，只有知己知彼，才能够达到百战百胜。若以长远的目光来看，玩德州扑克就好像在进行一场马拉松比赛一样，谁的耐心好谁、技巧水平高的话，谁就能赢啰，那么你玩过德州扑克了没? 下面就是德州扑克的起手口诀唷~~大家要记清楚啦~~ ☆起手之歌☆ 小对子，先看看，松三紧四最划算； 一大对，别放慢，催租逼债心莫善； 两张大牌都可干，小心不要当陪练； 有人加倍要谨慎，十尖、勾K早了断； 同花又相连， 松三紧四才赚钱； 坎一、隔二、或隔三？ 四平五稳六平安； 同花“ACE HIGH”， 一般跟进都不赖； 如果GAME非常TIGHT， 四人陪练我就TRY； 勾圈K小同花派， 松四紧六捞外快； 同花人多好捧场，别赶后边赞助商。"
                },{
                    "title":"博彩游戏平台玩百家乐心得",
                    "content":"博彩游戏平台的真钱百家乐游戏一直是所有赌博玩家都会关注的博彩游戏，网上各种赌百家乐的技巧之类良莠不济，往往有时候误导很多玩家，让玩家无从下手或下手时也会输掉很多。那么我们怎么样选择网上的一些玩百家乐技巧及经验分享之类呢，怎么样才能提升博彩游戏玩家的百家乐赌运呢，现在小编就为玩家们秘传一些在博彩游戏平台玩百家乐心得。 任何博彩类游戏都需要一定的技巧和运气，真钱百家乐也不例外的。在玩百家乐游戏的时候都是想提高自己的赢率，那么就要做到控制自己的意念，意念存在于每个人的大脑中，好的意念可以使你随意念的操纵逐步地从不好的命运中摆脱出来，而消极的意念只会使你的命运更加不幸。要相信“人品好牌品自然好”，相信自己就是好人，心中一定要想我的牌一定会来好牌，要什么就来什么牌，有了这种积极的意念，人会变得乐观起来，做什么事都充满干劲；相反的，如果总有消极的意念，那么就会意气消沉，无精打采，接下来赌百家乐的结果就可想而知了。 在玩百家乐的时候，积极的意念和消极的意念将导致两种不同的牌运，据有人统计，运势比较好的人，多半都性格开朗，对前途充满信心，这就是天助你，你只有先做到这一点才能打开你命运的大门，所以赌百家乐的时候要记住积极的意念是少不了的。 人活到世上不论做什么都要以快乐为根本，打牌也同样要打快乐牌，你要保持乐观的处世哲学，凡事往好的方面想，即使是你的失败也要感谢上苍给了你一个认识世界的机会，给了你一个继续努力的机会，玩百家乐赌博游戏也是如此。 在博彩游戏平台玩百家乐心得中的秘密武器就是要有积极的意念，这个助你走向赌百家乐辉煌的一刻。 牌局的尾端都不应该要持续下注。"
                },{
                    "title":"玩时时彩要确保自己的心态正确及有好的方法!",
                    "content":"玩时时彩如果想赢，那么记得一点最重要的就是资金链，事先做好规划才能确保自己的资金链不会断，在资金链不断的情况下才能长期的赌，聚精会神求稳固求精确。 再来要有自己一套止损方法，懂得该如何控制风险，该丢的时候一定要舍得放弃，买彩票不可能天天都赢钱的，如果长期赢钱是你的目的，那么记得要先预设一些赢钱的计划和亏损时的计划以便随时运用，最终的目标当是还是赢钱为止啰，千万不要掉进赌场的圈套里了!一旦被套牢下场如何应该不用笔者告诉你吧…。 最后是心态问题，一定要让自己保持在一种乐观进取的心情，亏损了先不要着急，如果你有很多的时间和精力及金钱支持，亏损了不要怕先从小慢慢做起，千万别有一次就想把所以赔掉的钱赚回来，这样只会越陷越深，越亏越多，深陷其中而无法自拔。 短期间赢回来的钱也不要贪念，记得时时回过头看看你的历史心路历程，等待机会再适时切入，运气不是天天都有的。"
                },{
                    "title":"玩时时彩只要能随心所欲的掌握一种方法就够了",
                    "content":"很时时彩玩法虽然很多，但是要记住，能够熟练的掌握一种玩法就够了，学习太多种玩法不仅容易搞混也没有多大的帮助，只要学会任何一种玩法都能够让你日赚500甚至1000，时时彩迷们要切忌如果你一天到晚换玩法玩，玩完后1，玩后2，玩完后2玩后3直选，玩了直选又玩毒胆，玩了毒胆再玩组三、组六。不停的换玩法，这时你的心态都乱了，也容易呈现混乱状态，把A玩法记成B玩法，这样下去绝对是赚不到钱的。 只要常用一种玩法，久而久之熟练了能掌控了，对这种玩法的数字有感觉，你就进化成为时时彩高手啰!"
                },{
                    "title":"玩快乐彩时可以适时的选择复式下注法",
                    "content":"在双色球游戏中，复式下注一直是有技术的彩迷常使用的下注方法，所以啰小编当然也是建议大家如果有遇到一组号码是你相当看好的时候，可以试试这种复式下注法。 其实在双色球这种游戏中开出来的百万大奖幸运儿得主当中，大部分能获奖的都是彩迷选择复式投注法才中的。也因此彩迷朋友在挑选号码时，不要那么容易就放弃自己喜欢而且觉得会中的号码，你能适时的进行复式下注法。 接着再精心挑选投注号码，最重要的一点是一定是坚持。其实往往是对彩票游戏充满热情，持之以恒地关注双色球走势的人，才有办法坚持买彩票，这么一来中奖机会当然也能提高了对吧。"
                }
            ]
        }
    ]
}