{
    
  "data":[
      {
          "category":"Baccarat",
          "main":[
            {
              "title": "Time, mindset, capital, control yourself to win Baccarat!",
              "content": "Before you play baccarat, you must first make your own betting chips. Whether it is money or the use of chips, you must have a correct specification so that you don't regret it because of impulsiveness. If you can formulate the management of capital and the goal of stop-loss and stop-loss, you can save your own profits, minimize your losses, and have a good profitable face in the long-term game. In the downwind state, players should never make negative pursuits. Even if you have lost a lot of profit before, don’t rush to save. The more you have this feeling, the easier it is to lose more. If you don't want to clear the bag, you should ban this situation! If the situation is not good and the profit has already been lost, then you should take a break and decisively leave the table. If you want to enter the venue again, don't be too I am anxious, because the more urgent the mood, the more likely it is to make a mistake. If the profit is good and there is a good situation, then you can try to raise more profits, but Don't forget to win, don't let your own wins lose at the end. Everyday game time must be controlled, don't play games when you are physically and mentally tired, because it's easy to be embarrassed at this time. You can't think about every decision you make."
            },{
              "title": "How do players with less time choose the baccarat game?",
              "content": "Many players who play baccarat are not professional. They just use their work to play baccarat. So these amateur players can't be like professional players, but whether amateur players can also enjoy baccarat. What about Lee? I think that whether it is amateur or professional, the reason why players can't make a profit is because they don't carefully plan their game strategy. Playing baccarat is just relying on their own luck to make a bet. You can only put your hands on the casino to the casino, and leave your pockets empty. In fact, the more you want to win baccarat, the less you want to win, and the more you expect to win, the more disappointing it is. Because of the tension in the heart, the only way to relax and enjoy the gambling process is to make a profit. The best way to win a Baccarat is to win the game. Usually amateur player time is not very sufficient, there is not a lot of time to slowly find a way, so it must be quick, so use the reduction method to assist the player to bet, it should be very good for winning Help, players only need to control their bet, and improve their winning time in a limited time, do not have to worry about losing money in a short time in the pocket, of course, the player's bet is best to be divided into multiple bets. "
            },{
              "title": "reduction method, amateur baccarat player is good choice",
              "content": "If the player wants to use the deduction method to bet, then at the beginning of the first bet can bet according to their own situation, then slowly reduce the chip, and set a loop, when the loop ends After returning to the bet of the first bet, continue to the next cycle. For example, when the first bet bets 4 chips, the second bet bets 2 chips, the third bet bets 1 chip, the fourth Note that the loopback method of the first bet is repeated, and so on. Of course, the player must also set a time point for stopping. During the betting period, the player can use the profit and use the bet method to bet. Of course, the gambling is There are wins and losses, sometimes bad luck and losing four times is also possible. Since players can't change their luck, then we can choose to leave, let ourselves have capital, don't cling to the field and lose light. If the amateur player doesn't have much time, try to check the bet method. In addition to allowing you to make a profit in a short period of time, you can satisfy the mood of wanting to play baccarat, remember a little. When you are lucky Again, there is reduced instead of increased capital shortage, then consider yourself a break or leave it! They say the rest is to go a long way. "
            },{
              "title": "How to use baccarat insurance betting?",
              "content": "Insurance betting in baccarat, his investment principle is more like hedging behavior. Compared with Texas Hold'em, he uses insurance betting in baccarat games at 21 points. The gameplay is more flexible. The player is betting. After that, when the number of points higher than the opponent is obtained, the bet amount of the “insurance” can be additionally increased according to the prescribed ratio, and the maximum amount of the insurance is generally the same as the amount of the bet. In order to make the insurance method more diversified, the player You can buy it according to the party that your dog bought, and reduce the risk that the opponent will win all his chips after the game. * “Zhuang Insurance”, when Zhuang’s two cards add more points than they are idle, then leisure The family must have a blog. The dealer can purchase the “Zhuang Insurance” in order to reduce the risk of winning the player’s blog. The minimum bet is the maximum limit. If the final result is won by leisure, then “Zhuang Insurance” This is also a win, if the dealer wins the “Zhuang Insurance”, then the “Zhuang Insurance” is also the same. * “leisure insurance”, when the player last point is greater than the dealer Then the bookmaker can play the card, and the player needs to buy the bet. “Free insurance.” The final result is if the dealer wins, then it is the “free insurance” win. If the player wins, then the “leisure insurance” loses. If the final outcome is the sum of eight or less, then the “eisure insurance” is the sum and note. When the last three cards of the player add up to nine points, the ending is still by the banker, and the “free insurance” Winning Note. The above is the insurance betting method of baccarat. If the player wants to use it, he can effectively win if he uses it properly. I hope that the player can find the key to win."
            },{
              "title": "Baccarat betting skills: double betting",
              "content": "Double betting is a technique often used by players everywhere. For example: the player's base code is $100. When the first game is lost, the second bet is twice the amount of the previous game. $200, when the second round lost the third game, it was twice the $400 in the second game. When it came back, the note was reduced to the original $100. This technique is relatively slow, but it is slower. No matter how many times the player loses, he can return to the game as soon as he wins one game. Of course, this method also requires a high amount of capital to be implemented. Many players say that this is a skill that baccarat must win, but the table is also cracked. In this way, each gambling table has a limit increase amount, so when the limit is reached, it can't be re-raised. Players should remember to take care of their own situation regardless of which gambling technique they use. Flexible use in the game field."
            },{
              "title": "Baccarat's highest level of skill: single-note skills",
              "content": "People who want to use the single-note technique need to be very, very good, and have full confidence and perfect psychological construction. The single-note skill is just a one-time bet on the planned capital, of course. Capital must be the upper limit amount used by the player. You only bet this time, regardless of whether you win or lose. Therefore, players who use this skill need to have a good attitude, and players who are not gambling can use this method. When using single-note skills Players must remember the following three points: 1 Must have a good grasp of the number of baccarat and the number of roads to be opened, this must be achieved by the accumulation of experience. 2 Players must not be gambling, I still can't worry about the profit and loss. I can only win if I can lose it. Of course, this must have a very good grasp of the number of baccarat and the rules, so that there will be less losses. 3 Since the player is not worried about the profit and loss, then You can't have a greedy mentality, because this is a big bet that makes a bet once, so even if you don't continue to bet, you can't keep a small bet. Candidates can not be used in this way, after all, continue to affect the mentality of bets will be easy. "
            },{
              "title": "Baijiale's common buying method is to buy one and buy two and advanced buying method",
              "content": "This is the most common way to buy in casinos, but this party is especially suitable for “Baccarat”. The method is very simple. It is simply buying a house or buying a leisure. If you lose one, you can buy two, as long as one Win it and stop. Because there are only 4 combinations of possibilities: win, win, lose, win and lose, and the worst loss, because as long as you lose, you must buy two, so this settlement will only be the last half will be lost. However, this method is a passive purchase method, so the final settlement is not necessarily able to really make money, but some baccarat cash nets will provide players with some bonus feedback activities, as long as there is a bonus, even if the player loses one The second gameplay to bet, still able to make a lot of dividends, even if the final loss, in fact, no loss is much. Advanced buying method ~ choose to lay the road. The game “Baccarat” is simply a game of arbitrage or arbitrage. Therefore, players are advised to know which one is more important as the primary goal. Xiaobian recommends that you observe twenty hands at a time. The card is analyzed as a unit. In the baccarat game of the cash net, the player itself does not need to make a record. Just by looking at the top of the screen, you can know whether the player is in the gate, or It is a positive value alternate conversion time. If the positive value is alternately converted, then the player should not change it. The reason is that if it is a change of two leisures or even a change of Zhuang Yiyi, then I can guarantee that the players will definitely be difficult to follow. Zhuang leisure, it is better to first look at the number of colors between the recent twenty hands to write as a reference. Generally speaking, the change of every 20 hands of “Baccarat” is about 1:1. From here, it is possible to determine the possibility of change between the next two games. "
            },{
              "title": "Baccarat should not bet more than 5 times per table",
              "content": "A lot of players will play baccarat games online. Most of the players use the method of chasing dragons or anti-chasing, and they will catch up until they appear or the bags will stop. This kind of betting method is used for a long time. It is often doomed to fail. Players who play online baccarat can pay attention to some of them, this method may allow you to turn defeat into victory! 1 patiently observe the number of cards. 2 Do not bet every game, find I judge that I feel the right time to come again. 3 Each table should not be bet more than 5 times. If any one of the four bets wins or loses, you should resolutely leave. If you win, you may be lucky. There will be no, so change the table quickly to keep luck, and losing even may indicate that the momentum of this table is not in line with you, so there is no need to continue playing here, but you can also adjust your mindset while resting. 4 You should not continue to bet at the end of the game. 5 You can observe and then place a bet before you place a bet on the table. If you have a win when you are observing, then this one. Tables will be able to attack. Although the above method may not win long-term, but as long as reasonable use, should still be able to get some small gains. "
            },{
              "title": "Baccarat strategy, note the risk of a grasp",
              "content": "There are three tricks below. It is a small series that combines the experience of many players and summarizes the baccarat strategy! Don't insist that the player who plays the high win rate has a lot of players who know how to play baccarat. In the process of family music, the highest win rate is betting, but in the whole process, betting on Zhuang does not necessarily have a high profit; so don’t be motivated to invest in one side and want to win with such a strategy. It is impossible to be realized. Secondly, there is no way to win in the betting technique of Baccarat. Players must pay attention to the use of the bet. The trend of the card cannot be controlled by us, so We must control the chips we hold in our hands. When the cards are strong, we can boldly increase the bet. Of course, when the situation turns sharply, it should be timely, so that we will not let ourselves lose too much. The fortune is also divided into two situations, namely, the pros and the weak, so as long as you master your own fortune change is the winner. The higher the risk of the third risk control, the higher the risk, how to control the risk, Depending on the player's own funds and the use of time, what is the bet of the bet, and how long the game will be, can make the risk higher or lower; when the player learns to adjust the bet of his bet, the risk becomes natural. Can be reduced, and the game time is also best controlled within a certain period of time, of course, the longer the time, the more the loss, which means the higher the risk."
            },{
              "title": "One of Baccarat's betting skills “five times a small game” gambling friends must know!",
              "content": "The “five times a small game” is a practice of baccarat “cutting gambling”, which aims to make gamblers not have a clue in the gambling. We should plan the chips for the next 5 hands in advance, the first time to lose, the second time how to bet; the second time if you win, how should you deal with it for the third time? ……and many more. No matter which win or lose, the five bets are in advance planning. Then, the five best endings and the worst situation are all in your heart. Being in control of the situation, so that you have a steady bet, the mood will not be ups and downs. The “five times and one small game” is used in the timing and amount of overweight, and it is one of the indispensable gambling techniques for baccarat gamblers. Every time we play five times, we check if we can start overweighting? If you have already reached the timing of overweight, you can't wait any longer! Be sure to add more! Otherwise you will never be able to beat the casino! “Plus” is the most easy time for people to feel upset. The bigger the win or lose, the more people can't be calm. Therefore, when we start the overweight mechanism, “five times a small game” is a virtue that must be strictly observed. If a baccarat gambler can't set a paragraph and then carry out and manage it piece by piece in batches, the pressure from the gambling in the middle of the game will hit you. The normal heart becomes a luxury talk, and there is no room for anxiety. You don't know beforehand that you will settle a win or lose after playing for the first time, and then prepare for the next “five times a small game”. The way you play while walking will definitely win the row of dealers and gambling tables. Open, day and night waiting for the challenge of the casino. "
            },{
              "title": "Bet method in Baccarat” “two-star plus code”! Classic example big analysis",
              "content": "Two-star plus code in baccarat uses a small space to explain: (+4) I suggest that you start the “two-star plus code” and run into the worst situation (even lose 5 times) It will change from (+4) to (-3). When it is overweight, it will be poisoned immediately, and lose 5 times! From [+4> to (-3), this drop will not cause serious harm to professional players [ I believe that everyone will agree. The other conditions of the miss are also within the tolerable range. Our state of mind will not be violent. Compared with those who are overwhelming, they do not know how bad it will be after the failure. The gambler, our shots are calm all the way, the casino is hard to find cheap in you. Don't underestimate this psychological gap, people who can win money in baccarat must have accurate concept of overweight, lack of this kind of The logic of operation, if you add more, you will lose the number of people after all. If you have a small gain after adding the code, change from [+4] to [+6], then you can increase it to “three-star plus code”. Assume that in this section, the bones lose five times, and only change from [+6] to (-3). The difference is not intolerable, but every baccarat player must have the psychological preparation. Even in the follow-up gambling all the way to [+12], the “six-star plus code” will be played, the next five times As long as you don't lose a lot of battles, you can keep a few battles, you can fight all the way, and even win a few gambles with a bang."
            },{
              "title": "Grade-up, one of Baccarat's regular betting methods, do you know what it is?",
              "content": "Grade-up should be “staircase” if it is turned into Chinese, and “staircase cable” is more expressive and close. You should be able to see that the bet amount is in a “stepped” upward trend. The first time (1), the second time plus 2 ' becomes [1 10 2 = 3]. The third time plus 3 ' becomes (3 10 3 = 6). The fourth time plus 4 becomes [6 10 4 = 10]. This is progressive, until the tenth time becomes [45 10 10 = 55]. I listed it in the table for the 10th time, just to facilitate the explanation of the change of the bet amount. The subsequent explanation is only the 5th. The operation of Grade-up is best only to the 5th [15], crossing This line is quite dangerous and should not be tried. Bet method: Enter the bare retreat, the first time (1), the second time (3), and the third time (6)... If you win once in the middle, then you will take a step back. If you win in the fourth (10), you will return to (6) the fifth time. Once again, you will return to (3). If you return (6) and then lose Once, continue to move forward, the next time you enter (10), if you win, then go back to (6), and then continue to move on to (10). Repeatedly, backwards, and back, (1). Up is actually just another “variation” of Martingale. It is not a panacea at all. The two gambling methods are similar, but the Grade-up is less risky than the Martingale. But if this gambling is used properly Really it is a good choice, worth exploring! "
            }
          ]
      },
      {
          "category":"Roulette",
          "main":[
            {
              "title": "Roller number repeat betting method",
              "content": "The real money bob number repeat bet method is to bet on the four numbers in the last four rounds of digital duplication, each time a gambling card is placed (the last number is also listed). The method is based on the irregular repetition of the number of the wheel, sometimes repeated quickly, even several times in a row. Other numbers may not wait for a long time. You should pay attention to the kick-off record before placing the bet. Be sure to choose the 4 rounds where the number has been repeated. Use this method to exit if you lose two consecutive games. The required cost is at least $100 (if a gambling card equals $5). If you lose, you You may lose $100, or part of it. If you win, you will win 32 gambling cards (odds 35 minus 3 you lose, and one for the hits in the next game). Your gambling is small and you can use a small gambling card. But if you play with a $5 gambling card, you can win 145 dollars (that is, $100 for the $45 earned). You still have $20 for the next game. Gambling. If this time wins again, the whole The game returns to the first step. For example: You first observe the roulette opening result, if you open 11. Don't bet first, wait first. The second round out 16, continue to wait. The third round result is 29, still Wait. The fourth game is 6. There have been 4 rounds, but no numbers have been repeated, you have to wait. The next round hits 29 (already repeated numbers)... you can start On each of the numbers 11, 16, 6, 29, put a gambling card (remove the first hit 29 and write it at the end of the group). The next game is 9 You lost. So next you put 16,6,29,9 (also one bet for each number). Hit 6, you win, net earn 32 gambling cards, plus stay on number 6 Next, bet on the group 16,29,9,6. Hit 12, you lose. Then move 29,9,6,8 (remove the first number, save the last number opened) ). Open 17, this group of numbers loses twice. According to the above method, you have to quit. But in fact, you still earn some gambling cards."
          },{
              "title": "Many players like the three methods of trial and error roulette",
              "content": "◎ Method 1: Regional betting method Roulette games are basically the same, the numbers are divided by 0~36 red and black, and there are also areas by region, but most companies' roulette games are divided according to regional bets. After years of analysis Income: If the area betting method is used, it is easier to lock the data, such as the five numbers in the 0 area (0, 26, 3, 35, 15). If the ball falls in the area, it is basically determined that the area is red-hot. ◎ Method 2 : The classification bet method divides 36 numbers except 0 into four categories: Big Black (20, 22, 24, 26, 28, 29, 31, 33, 35), Black (2, 4, 6, 8) , 10, 11, 13, 15, 17) Red (19, 21, 23, 25, 27, 30, 32, 34), Xiaohong (1, 3, 5, 7, 9, 12, 14, 16, 18) When the road comes out, the bet is classified in such a way, so it is very easy to win. ◎ Method 3: The method of applying the method to the expert is tried and tested, and the results are the same, because some people think that the roulette is suspected of cheating. The number that is often issued in many consecutive periods is a few, and many people are often unable to get through."
          },{
              "title": "The roulette technique of the roulette is ten: a dozen styles",
              "content": "I believe that everyone is no stranger to live-action betting online games. Most players think that three-point is too doomed to think that gambling is by luck. In fact, this kind of cognition is not wrong. Indeed, betting in gambling games has a higher level of luck. But it is not a three-axe. Real gold and silver playing roulette games, you need to master some basic rules and techniques, and give you a twist and feel. The rules of the roulette method are 1, 3, 9, 27, 81 ... The 3 times bet method, as long as the bet is once, you can earn one. In fact, the rules of the law are: first, in each of the three dozen betting areas, as long as the roulette number does not show 0, it means If you don’t earn or lose, every time you make a bet, you will be bet on a dozen betting areas. It’s the previous time to go out in a district and double the second and third districts. The three districts, each time from the beginning of a bet, if not, the next time to triple, if the next time, then re-start from one."
          },{
              "title": "Challenging the craziest roulette average bet method",
              "content": "1. Analyze the red and black chart of the roulette, prepare 200 yuan for lucky gold, and put one of the first number 40 yuan, and the second one for one of the numbers 40 yuan 2. bet 5 yuan red (note) 9/12) & bet 5 yuan red note (8/11) 3. Bet 5 yuan corner note (2/3/5/6) Always keep the outside and inside comparison 40/5=8 multiples, Because there are more than 2/3 chances of winning, it is very profitable. The intention of preparing 200 yuan is that you can maintain two consecutive non-percentages of 2/19, and the total bet is 90 yuan, but each time you win 30. Yuan, the return is very impressive, the red and black trend should be considered in each of the inside and corner bets, and then 36 bets are regarded as a basic betting cycle, as long as there is no winning in one cycle, immediately Exit, 0 if you have more than two times to exit. If you have good luck, you have won 10 times, after winning 500 yuan, the interval is bet 80 yuan, the extra inside bet 10 yuan each, the total amount is 180,400, guaranteed If you make two consecutive mistakes, you will not lose money. At this time, you can win 60 yuan each time. If you win 10 times in this method, you will get 1100 yuan. Time, you can consider leaving, or you can wait until the win 2,000 yuan walk will do. "
          },{
              "title": "The betting skill of the roulette “Two Dragons Treasures”",
              "content": "There is a technique in the roulette called “Two Dragons Treasures”. The trick of this technique is: rushing to use, and accumulating thin hair; the method of skill application is: when 1~34, 2~35, 3~ 36 When there are one repetition number in the three lines, you can set the ABC three lines (first column, second column, third column). For example: A line 1, 4, 7, 10, 13, 16, 19, 24, 25, 28, 31, 34 B line 2, 5, 8, 11, 14, 17, 20, 23, 26, 29, 32 35 C line 3, 6, 9, 12, 15, 18, 21, 24, 27, 30, 33, 36 First, take the 1 to 34 line A as an example, suppose the first one is opened, and then reopen On the 19th, it is repeated in A online, placing a base code at the end of the A line, then double the base code on the last line of the A line and the C line. If it is in the middle, stop, wait patiently. The next time the same situation occurs, the first time the method is used to place a bet with the base code. If there is no medium, stop it. Wait patiently for the next time the same situation occurs, bet with a larger multiple of the base code, but under When you start again, you bet with the minimum base code. If you lose, you will wait patiently for the next same situation, and so on. "
          },{
              "title": "The most practical technique for roulette is to multiply by 3+1.",
              "content": "What is a “one game”? One-player method, also known as the 3+1 bet method, is to gamble with a three-fold bet method of 1, 3, 9, 27, 81, etc., as long as there is a bet, you can earn one, in fact The law of the arbitrage is that at the beginning of the first three numbers on the roulette, one will be detained. As long as the zero is not issued, it means that you will not earn or lose, and every subsequent bet will only be released once. One dozen betting areas, the other two areas of the same amount of betting, this method is exactly the same as the single and double method, as long as you win once to earn a hand, you want to win one skill on average, you can use the multiplier 3+1 bet method 1, 4, 13, 40, 121, ... and so on. In fact, the single-double method is similar to the one-play method. See which method the player likes. Through the above strategic analysis, smart players will know that these strategies are very helpful in roulette games. For those who love to play roulette games, be sure to come to this site to learn more about the roulette skills of the roulette machine, definitely help you get the highest victory in the roulette game. "
          }
          ]
      },
      {
          "category":"Dice the treasure",
          "main":[
                  {
                  "title":"Suibao High School's next three risk betting strategies",
                  "content":"Changyan said “practice makes perfect”, as long as the game skill is flexibly applied in the actual game, and it is good at summing up lessons, then it is not a dream to defeat the dealer to become a big winner. Many people think that the game is a kind of luck. There is no skill in the game; and the advantage of throwing the dice game to the dealer is too great, and it is difficult for the player to win. This is obviously not convincing, and it is impossible to explain why Suibao is widely loved by players. In fact, Xunzi The attribution of points is a probability problem, which is the scientific component, and naturally there are rules to follow. Here are a few practical Suibao game skills. 1. Suibao game low risk betting strategy to take a low risk betting strategy Is to try to bet in the small bet area of ​​the banker's advantage, such as the size of the banker (the dealer has only 2.78% advantage) and the number of bets. This strategy is especially suitable for novices, which is easy to learn and easy to master, and not because of bad luck. Lose a lot of money. Of course, low risk means low return, so you should consider the higher return Sic Bo strategy after playing. 2. Sic Bo game Risk betting strategy The medium-risk Suibao betting strategy is more suitable for players who want to win big money but don't want to take too much risk. This Suibao strategy is mainly to use combination bets to increase the chance of winning. For example, if The result of two dice is 1 point, then the sum of the three dice may be 3, 4, 5, 6, 7 or 8, and it is impossible to be 9, 10, 11 or 12. So if you bet in a total amount greater than 8, It is also possible to make a bet on the 1st, so it is more likely to guess. If you want to increase the total amount, it is best to press 9, 10, 11 or 12, because the combination of these sums is the most, the probability of being in the middle. Max. The following betting strategy is a good choice: (1) 3 bets under the sum of 9 zones, 2 bets on 1st, 5th, and 6th (a total of 9 units of bet) (2) In the sum of the 12 areas, 3 bets, in the pair 1, 2, and 6, the next two bets (the total of 9 units of the bet) Why do you bet this? If you guess the sum , win 18 bets; if you guess the pair, win 20 bets. This return is relatively high. Of course, if you can't guess, you have to lose 9 A note, the risk is also relatively high. Therefore, this betting strategy has a certain ability to withstand the risk of the players, that is, those who are already familiar with the Sic Bo game and are not satisfied with the size of the game. Risk betting strategy When you encounter a good star, you may wish to adopt a high-risk Suibao betting strategy. High risk often means high returns, especially when you are lucky, your ability to withstand risks is relatively high. The high-risk betting strategy is the same as the above-mentioned medium-risk strategy. It is still bet with the total number of dice and the pair. When the sum of the dice is 8, it is impossible to appear against 4, 5 or 6, but may appear to be 1. For 2 or 3, we can bet like this: (1) 3 bets under the sum of 8 zones, and 2 bets of 1, 2, and 3 (a total of 9 units of bet) (2) In the sum, there are 3 bets under the 13th zone, and 2 bets on 4, 5, and 6 (the total number of bets in the next 9 units). This is because the guess is made. In the total sum, win 24 bets; if you guess the pair, win 20 bets; if you guess, win 44 bets . It can be seen that the return of the high-risk Sic Bo strategy is very high. "
              },{
                  "title":"Teach you how to play with the treasure",
                  "content":"Suibao is an ancient Chinese dice game. It is generally called betting size. It is a method of gambling with scorpions by various players to the dealer. Here are a few ways to share with everyone. : The size of the bet is calculated by the odds. The more people participate in the more betting items, the smaller the chances of the dealer being controllable, and the bigger the win will be. We don't want to go to the table with fewer people. When it comes to a large number of people, it is necessary to analyze the amount of betting. Generally, after the first move, the bet is bought and the final release is made. We must agree with the dealer’s thinking before we can analyze what we think, before we can win. Therefore, we must first analyze the betting situation. The general bet size is 1 for 1, the amount is not large, mainly to see the odds of the number of points, for example, you notice that many people are arbitrarily, and also the high points of the high odds, according to The principle of claims, we naturally want to bet a relatively small odds and small odds, then the yield of the winning face will be greater than 0. The timing of the bet must be grasped. Because the dealer is with you to watch the betting situation, he Also analyzing, when he buys to leave, he will A certain opening situation, this time we will be the last moment to bet! Take the Hawker to explore the road. When there are a lot of money, we will not play first, we must first observe the reaction of the dealer, usually first Let it win a few small, then it will let it lose pain, when you see the Hawker start to lose, hurry to buy it, we must buy small. This time betting fast."
              }
          ]
      },
      {
          "category":"other",
          "main":[
            {
              "title": "Common introduction to the three major game modes of Texas Hold'em",
              "content": "There are three main types of Texas Hold'em in the online Texas Hold'em Room on the web: Limit Texas; pot limit, No-Limit. One category: Limit Texas refers to the limit of the maximum bet amount in each round of betting. The 2-4 limited bet Texas Hold'em as an example: 2 and 4 The number is the minimum bet amount, 2 is the minimum bet amount for the first round and the second round bet is $2, and the minimum bet amount for the third and fourth rounds is $4, under each round. The note-taking process can only be filled up to three times. The first round and the second round of betting can only add $2 to each raise, for example, the first player bets $2, while the second player raises only For $4, the third player can only raise $6, then the fourth player raises only $8, $8 is the highest bet amount for this round, and the player behind can only call again. Raise; there are only $4 for each raise in the third and fourth rounds, for example, the first player bets $4 and the second player can only raise $8, The three players can only raise $12, and then the fourth player can only raise $16, which means the maximum bet amount for this round is $16. After the player can only call, they can't re-raise. The restrictions on the 3-6, 4-8, 10-20, 50-100 limited betting process for the Texas Hold'em bet are the same, only the minimum bet amount is different. The second category: bet limits Texas Hold'em ( Pot limit) refers to the process of betting every round. The limit of the bet amount is certain. If you want to raise, the maximum amount of bet can only be the total amount of bet for the table player. No-Limit refers to the process of betting every round. There is no limit on the amount of bet, but if you want to raise, the minimum amount must be placed for the player in front of you. Double the amount of the bet. For example, if the player's bet amount in front of you is $10, you can raise to $50. If the player behind you wants to raise, the minimum bet must be $100. Of course, his addition. The amount can also be up to $200 or $500. So it can be said that unlimited poker is a riskier and more challenging tour. . "
          },{
              "title": "Texas Poker Cheats: The Actual Battle of the War",
              "content": "The rules of Texas Hold'em are quite simple and easy to control, but it is still difficult to really master the game. Therefore, if you really want to be a good Texas Hold'em player, you must not only control the basic offensive and defensive. The strategy must also be able to recognize all kinds of opponents' playing cards at any time, based on different opponents, and adopt different strategies at any time. Only by knowing oneself and knowing each other can we achieve a hundred wins. If we look at the long-term perspective, play Texas. Poker is like a marathon. Whoever has good patience and skill level can win, then have you played Texas Hold'em? Here is the starting point for Texas Hold'em. Remember clearly~~ ☆ start song ☆ small pair, first look, loose three tight four most cost-effective; a big pair, don't slow down, urge rent to force the debt is good; two big cards can be done, be careful Don't be a sparring; some people should be cautious, the ten-pointer and the hook K are broken early; the same flower is connected, and the loose three is four to make money; the one, the second, or the third? The four flat five stable six safe; the same flower “ACE HIGH ” Generally do not rely on follow-up; if GAME very TIGHT, four sparring I TRY; small circle hook flush K faction, pine four tight six fishing extra money; many good people to join in with the flowers, do not rush back sponsors. "
          },{
              "title": "Bet game platform to play baccarat experience",
              "content": "The real money baccarat game of the gaming platform has always been a gaming game that all gambling players will pay attention to. The skills of online gambling baccarat are not good enough, sometimes misleading many players and letting players If you don’t start or start, you will lose a lot. So how do we choose some online baccarat skills and experience sharing, how can we improve the gambling gambling of gambling game players, now Xiaobian For the players, secretly play some baccarat experience in the gaming platform. Any gambling game requires a certain skill and luck, real money baccarat is no exception. When playing baccarat games, they want to improve Your own win rate, then you must control your own ideas, ideas exist in everyone's brain, good ideas can make your random manipulation gradually get rid of bad fate, and negative thoughts only It will make your destiny even more unfortunate. Believe that “good character is naturally good”, believe that you are a good person, you must think that my card will come to a good card, what will come if you want With such positive ideas, people will become optimistic and do everything with enthusiasm; on the contrary, if there are always negative thoughts, then they will be depressed and listless, and then the result of betting on baccarat will be It can be imagined. When playing baccarat, positive thoughts and negative thoughts will lead to two different kinds of cards. According to some statistics, most people with good fortune are cheerful and confident in their future. This is the day to help you, you only have to do this before you can open the door to your destiny, so it is indispensable to remember the positive thoughts when you gamble on baccarat. People must live in the world to do whatever they want, with happiness as the foundation. Playing cards also requires playing happy cards. You must maintain an optimistic philosophy of life. Think about everything, even if it is your failure, thank you to God for giving you an opportunity to know the world and give you a chance to continue working hard. The same is true for playing baccarat gambling games. The secret weapon in playing baccarat experience on the gambling game platform is to have positive ideas, which will help you to go to the gambling baccarat. Engraved tail end of the Board should not be a continuation bet. "
          },{
              "title": "Keep your time and make sure your mind is right and have a good way!",
              "content": "If you want to win, then remember that the most important thing is the capital chain. You can make sure that your capital chain will not be broken in advance, and you can gamble for a long time in the case of constant capital chain. Steady and precise. Come back to have a set of stop loss methods, know how to control the risk, you must give up when you lose, buy lottery tickets can not win every day, if long-term win is your purpose, then remember You must first pre-set some winning plans and plans for losses so that you can use them at any time. The ultimate goal is to win the game. Don't fall into the trap of the casino! Once you are stuck in the game, you should not tell me. Finally... It’s a mentality problem. Be sure to keep yourself in an optimistic and enterprising mood. Don’t worry if you lose money. If you have a lot of time and energy and financial support, don’t be afraid to start slowly. Don't ever want to earn back the money you lost, so that it will only get deeper and deeper, and the more you lose, the more you will fall into it and you will not be able to extricate yourself. Money and do not greed, always remember to go back and look at your history spiritual path, waiting for the opportunity to timely cut, luck is not every day of. "
          },{
              "title": "It’s enough to be able to master a method as you wish,",
              "content": "There are a lot of color games, but remember that it is enough to master a gameplay. Learning too many gameplays is not only easy to confuse but also does not help much. Just learn any kind of gameplay. Can make you earn 500 or even 1000 a day, from time to time, fans should not change if you play the game all day long, after playing 1, after playing 2, after playing 2 after playing 3 direct elections, playing direct elections and playing poisonous, Played with poisonous daring and then played group three, group six. Non-stop gameplay, when your mentality is chaotic, it is easy to present chaos, and A gameplay is recorded as B gameplay, so it is definitely impossible to make money. As long as you use a kind of gameplay, you will be able to control it over time. You will feel the number of this gameplay, and you will evolve into a masterpiece!"
          },{
              "title": "You can choose the double bet method when you play happy color",
              "content": "In the two-color ball game, the double bet has always been a method of betting that is often used by technical fans. Therefore, it is recommended that you can find a group of numbers if you are quite optimistic. Try this double bet method. In fact, among the lucky winners of the Millions of Prizes in the game of two-color ball, most of the winners are the fans who choose the double bet method. When picking a number, don't give up the number you like and think it will be so easy. You can make a double bet in a timely manner. Then carefully select the bet number, the most important thing is to insist on it. In fact, it is often a lottery game. Those who are passionate and consistently pay attention to the trend of the two-color ball will have the means to insist on buying lottery tickets. As a result, the chance of winning will certainly be improved."
          }
          ]
      }
  ]
}