{
  "VersionSet": {
    "BKBLUrl": "//cdn.achout.com/BL/ExecuteAction",
    "WGUID": "EZUG",
    "SignalRUrl": "//cdn.achout.com",
    "ResourceURL": "//www.usg98.com",
    "ResourceCDN": "//cdn.achout.com",
    "WebVersionHost": "//www.usg98.com",
    "MobileVersionHost": "//mobile.usg98.com"
  },
  "BannerPath": {
    "Video": {
      "IndexVideo": "/web60/index1.mp4",
      "LiveVideo": "/video_banner2.mp4?VersionCode",
      "ElectronicVideo": "/elegame_banner2.mp4?VersionCode",
      "SportVideo": "/sport_banner2.mp4?VersionCode",
      "PokerVideo": "/poker_banner.mp4?VersionCode",
      "LotteryVideo": "",
      "AthleticsVideo": ""
    },
    "Images": {
      "IndexImages": "",
      "LiveImages": "/live_bg.png?VersionCode",
      "ElectronicBgImages": "",
      "ElectronicImages": "",
      "SportBgImages": "",
      "SportImages": "",
      "PokerBgImages": "",
      "PokerImages": "",
      "AthleticsImages": "",
      "LotteryBgImages": "",
      "LotteryImages": "/replace_banner5_1.png?VersionCode",
      "NewsBgImages": "",
      "NewsImages": "/newsBanner.jpg?VersionCode",
      "ActivityBgImages": ""
    }
  },
  "VersionNumber": "00",
  "ServeLink": "/static/ze.html",
  "SiteEmail": "liafhwe@gmail.com",
  "Environment": "0",
  "Lang": "0",
  "SurviveMinutes": 30
}
