{
  "cdnUrl": "ucn.sgxplay.com",
  "VersionSet": {
    "BKBLUrl": "//ucn.sgxplay99.com/BL/ExecuteAction",
    "WGUID": "AW1G",
    "SignalRUrl": "//ucn.sgxplay99.com",
    "ResourceURL": "//ucn.sgxplay99.com",
    "ResourceCDN": "//ucn.sgxplay99.com",
    "WebVersionHost": "//ucn.sgxplay99.com",
    "MobileVersionHost": "//mucn.sgxplay99.com"
  },
  "Environment": "1",
  "VersionNumber": "64",
  "BannerPath": {
    "Video": {
      "IndexVideo": "",
      "LiveVideo": "",
      "ElectronicVideo": "",
      "SportVideo": "",
      "PokerVideo": "",
      "LotteryVideo": "",
      "AthleticsVideo": ""
    },
    "Images": {
      "IndexImages": "",
      "LiveImages": "/web64/liveVideo/videoBg.png",
      "ElectronicBgImages": "/web64/sport/sportBg.jpg?VersionCode",
      "ElectronicImages": "",
      "SportBgImages": "/web64/sport/sportBg.jpg?VersionCode",
      "SportImages": "",
      "PokerBgImages": "/web64/poker/poker-bg.png?VersionCode",
      "PokerImages": "",
      "LotteryImages": "",
      "AthleticsBgImages": "",
      "LotteryBgImages": "",
      "NewsBgImages": "/web64/news/newsBg.png?VersionCode",
      "ActivityImages": ""
    }
  }
}
