{
  "VersionSet": {
    "BKBLUrl": "//vnd.sgxplay.com/BL/ExecuteAction",
    "WGUID": "AWNG",
    "SignalRUrl": "//vnd.sgxplay.com",
    "ResourceURL": "//vnd.sgxplay.com",
    "ResourceCDN": "//www.sgxplay.com",
    "WebVersionHost": "//vnd.sgxplay.com",
    "MobileVersionHost": "//mvnd.sgxplay.com"
  },
  "BannerPath": {
    "Video": {
      "IndexVideo": "/web34/Homepage-video.mp4",
      "LiveVideo": "",
      "ElectronicVideo": "/web34/Electronic-video.mp4",
      "SportVideo": "/web34/Sport-video.mp4",
      "PokerVideo": "",
      "LotteryVideo": "/web34/Lottery-video.mp4",
      "AthleticsVideo": ""
    },
    "Images": {
      "IndexImages": "",
      "LiveBgImages": "/web34/video.jpg?VersionCode",
      "ElectronicBgImages": "/web34/ele-game-bg.png?VersionCode",
      "ElectronicImages": "",
      "SportBgImages": "/web34/sports-game-banner1.png?VersionCode",
      "SportImages": "",
      "PokerBgImages": "/web34/poker_bg.jpg?VersionCode",
      "PokerImages": "",
      "LotteryImages": "",
      "AthleticsImages": "",
      "LotteryBgImages": "/web34/lottery-game-banner.jpg?VersionCode",
      "NewsBgImages": "/web34/aboutUs.jpg?VersionCode",
      "ActivityBgImages": "/web34/favourable.jpg?VersionCode",
      "AthleticsBgImages": "/web34/Athletics-game-banner1.jpg?VersionCode"
    }
  },
  "VersionNumber": "34",
  "ServeLink": "https://ytpfx.livechatvalue.com/chat/chatClient/chatbox.jsp?companyID=1062671&configID=46821&jid=8209720587&s=1",
  "SiteEmail": "liafhwe@gmail.com",
  "Environment": "0",
  "Lang": "3",
  "SurviveMinutes": 30
}
