{
  "VersionSet": {
    "BKBLUrl": "//vvn.sgxplay99.com/BL/ExecuteAction",
    "WGUID": "NNG9",
    "SignalRUrl": "//vvn.sgxplay99.com",
    "ResourceURL": "//vvn.sgxplay99.com",
    "ResourceCDN": "//vvn.sgxplay99.com",
    "WebVersionHost": "//vvn.sgxplay99.com",
    "MobileVersionHost": "//mvvn.sgxplay99.com"
  },
  "BannerPath": {
    "Video": {
      "IndexVideo": "",
      "LiveVideo": "",
      "ElectronicVideo": "",
      "SportVideo": "",
      "PokerVideo": "",
      "LotteryVideo": "",
      "AthleticsVideo": ""
    },
    "Images": {
      "IndexImages": "",
      "LiveImages": "/web25/common/liveVideo_bg.png?VersionCode",
      "ElectronicBgImages": "/web25/common/electronic_bg.png?VersionCode",
      "ElectronicImages": "",
      "SportBgImages": "/sport_bg.png?VersionCode",
      "SportImages": "",
      "PokerBgImages": "/poker_bg.png?VersionCode1",
      "PokerImages": "",
      "LotteryImages": "",
      "AthleticsImages": "",
      "LotteryBgImages": "/lottery_bg.png?VersionCode",
      "NewsBgImages": "/web25/newsBg.jpg?VersionCode",
      "ActivityBgImages": "/web25/common/activity_bg.png?VersionCode"
    }
  },
  "VersionNumber": "25",
  "ServeLink": "https://temm.y2ss.com/chat/Hotline/channel.jsp?cid=5022531&cnfid=16634&j=9019898122&s=1",
  "ServeQQ": "",
  "SiteEmail": "liafhwe@gmail.com",
  "Environment": "1",
  "Lang": "3",
  "SurviveMinutes": 30
}
