{
  "VersionSet": {
      "BKBLUrl": "//bong.sgxplay.com/BL/ExecuteAction",
      "WGUID": "AW89",
      "SignalRUrl": "//bong.sgxplay.com",
      "ResourceURL": "//bong.sgxplay.com",
      "ResourceCDN": "//bong.sgxplay.com",
      "WebVersionHost": "//bong.sgxplay.com",
      "MobileVersionHost": "//mbong.sgxplay.com"
  },
  "BannerPath": {
      "Video": {
          "IndexVideo": "/web60/index1.mp4",
          "LiveVideo": "/video_banner2_new.mp4?VersionCode",
          "ElectronicVideo": "/elegame_banner2.mp4?VersionCode",
          "SportVideo": "/sport_banner2.mp4?VersionCode",
          "PokerVideo": "/poker_banner.mp4?VersionCode",
          "LotteryVideo": "",
          "AthleticsVideo": ""
      },
      "Images": {
          "IndexImages": "",
          "LiveImages": "/live_bg.png?VersionCode",
          "ElectronicBgImages": "",
          "ElectronicImages": "",
          "SportBgImages": "",
          "SportImages": "",
          "PokerBgImages": "",
          "PokerImages": "",
          "AthleticsImages": "",
          "LotteryBgImages": "",
          "LotteryImages": "/replace_banner5_1.png?VersionCode",
          "NewsBgImages": "",
          "NewsImages": "/newsBanner.jpg?VersionCode",
          "ActivityBgImages": ""
      }
  },
  "VersionNumber": "00",
  "ServeLink": "/static/ze.html",
  "SiteEmail": "liafhwe@gmail.com",
  "Environment": "1",
  "Lang": "3",
  "SurviveMinutes": 30
}
