{
  "VersionSet": {
      "BKBLUrl": "//web08.sgxplay.com/BL/ExecuteAction",
      "WGUID": "AW46",
      "SignalRUrl": "//web08.sgxplay.com",
      "ResourceURL": "//web08.sgxplay.com",
      "ResourceCDN": "//www.sgxplay.com",
      "WebVersionHost": "//web08.sgxplay.com",
      "MobileVersionHost": "//mweb08.sgxplay.com"
  },
  "BannerPath": {
      "Video": {
          "IndexVideo": "/flash_index.mp4",
          "LiveVideo": "/EditionImg/LamborFormal/images/web28/flash/electronic.mp4",
          "ElectronicVideo": "",
          "SportVideo": "/EditionImg/LamborFormal/images//web28/flash/sport.mp4",
          "PokerVideo": "",
          "LotteryVideo": "/EditionImg/LamborFormal/images//web28/flash/lottery.mp4",
          "AthleticsVideo": "",
          "ActivityVideo": "/EditionImg/LamborFormal/images//web28/flash/activity.mp4"
      },
      "Images": {
          "IndexImages": "",
          "LiveImages": "",
          "ElectronicBgImages": "/electronic_bg.png",
          "ElectronicImages": "",
          "SportBgImages": "",
          "SportImages": "",
          "PokerBgImages": "/poker_bg.png?VersionCode",
          "PokerImages": "",
          "LotteryImages": "",
          "AthleticsImages": "",
          "LotteryBgImages": "/web28/common/lottery-bg.jpg?VersionCode",
          "NewsBgImages": "/web28/newsList/news_bg.jpg?VersionCode"
      }
  },
  "VersionNumber": "28",
  "ServeLink": "/static/ze.html",
  "SiteEmail": "liafhwe@gmail.com",
  "Environment": "1",
  "Lang": "0",
  "SurviveMinutes": 30
}
