{

    "data": [{
            "category": "The deposit problem",
            "main": [{
                "title": "How do I deposit money?",
                "content": "We offer a variety of convenient and safe ways to deposit money. You can choose one you like. Specific way: register account - login - personal center - deposit - choose deposit way."
            }, {
                "title": "What are the maximum and minimum deposit requirements?",
                "content": "The minimum and maximum deposit amount of the platform shall be set by the manufacturer according to different relevant conditions and timely notified through the website platform."
            }, {
                "title": "Is there any service charge for deposit? ",
                "content": "If you choose the company is method of deposit, the bank will charge you the remittance fee. If you use the online payment methods such as MO bao and sharp payment, there will be no deposit fee."
            }, {
                "title": "Can I withdraw my deposit without bet?",
                "content": "Because we are legally registered web site in the Philippines, the local government supervision and constraint 'anti-money laundering law', you do not bet is unable to apply for the withdrawal of deposits, withdrawal before you just achieve Amount deposit proportion established Valid Bet of running water can be withdrawn, the proportion set by the manufacturer according to the different related situation, and through the website platform timely notice."
            }]
        },
        {
            "category": "Withdraw money problems",
            "main": [{
                "title": "How to withdraw money?",
                "content": "After logging in, click 'personal center' and then click 'withdrawal' to apply for withdrawal according to the corresponding prompt. If you have not bound the withdrawal bank info, the system will prompt you to bind the bank info interface first. When your info is bound, it will automatically jump to the withdrawal interface, and you can apply for withdrawal online by yourself. (bank info and withdrawal password should be improved before the first withdrawal.)"
            }, {
                "title": "Minimum and maximum withdrawal amount?",
                "content": "The minimum and maximum amount of single withdrawal shall be set by the manufacturer according to different relevant conditions and shall be timely notified through the website platform. "
            }, {
                "title": "The maximum daily withdrawal limit?",
                "content": "The maximum daily withdrawal limit and the number of daily withdrawal for each account are set by the manufacturer according to different relevant conditions and timely notified through the website platform."
            }, {
                "title": "Is there any handling charge for withdrawal?",
                "content": "In the platform, when the Bet of players reaches the target Bet, there is no charge for withdrawal, and there is no limit on the number of withdrawal per day."
            }, {
                "title": "Time of withdrawal",
                "content": "All withdrawal will be received within 2 hours of the bank working time. Players can check the real-time situation in the member center. "
            }]
        },
        {
            "category": "The game problem",
            "main": [{
                "title": "How to log in",
                "content": "There are two ways for members to log in: click the 'login' button on the top right side and the 'quick login' area on the home page to log in. Only by correctly filling in the account, password and accurately entering the verification code can you log in successfully. If the captcha input is wrong or not clear enough, click the captcha to refresh and operate again. If the password is lost, click 'forget password' to contact customer service. "
            }, {
                "title": "Live game betting limit?",
                "content": "Live person game each hall hall bet quota is different, same hall hall different table table bet quota also can differ somewhat, player can have the aid of 'limit red to choose' the function chooses corresponding hall hall or table table independently."
            }, {
                "title": "What if you can not see the video?",
                "content": "Different video lines are provided in the game table interface. When the video is jammed or the display is loaded, please click 'video line selection' (different position of the buttons in the game hall) to switch to improve the fluency of video."
            }, {
                "title": "How to break the line after a successful bet?",
                "content": "If your online bet is suddenly interrupted, the established order will still be valid. The system will conduct lottery according to the actual result of the authority is opening. When you log in the account again, please verify the game bet record, balance and the game card opening result, etc. If you have any doubt, please feel free to contact the customer service for confirmation."
            }, {
                "title": "Can I block the prompt in the webpage? ",
                "content": "The prompt message is the channel for the website to inform users of relevant info. If users set their own browsers to block the pop-up message window, their rights and interests may be damaged due to this behavior. The website will not be responsible for this result."
            }, {
                "title": "Can not load the game Flash?",
                "content": "If Flash does not load properly, please check whether the version of Adobe Flash Player in your browser needs to be updated. "
            }]
        },
        {
            "category": "Account problem",
            "main": [{
                    "title": "How much does it cost to open an account? ",
                    "content": "Real account registration is free, all deposits can be used for bet. "
                },
                {
                    "title": "What if you forget your password? ",
                    "content": "You can call the customer service hotline or contact the 24-hour online customer service and inform the customer service about the info of the account. The customer service staff will check the info with you. After checking, a new password will be sent to your Email address. "
                },
                {
                    "title": "How to change Login password? ",
                    "content": "After logging in, click on 'Personal Center' - 'Password Modification' to change the password. "
                },
                {
                    "title": "How to protect account and fund security?",
                    "content": "To prevent account theft, please make your password more complex and change it regularly. Please avoid playing games on public computers (Internet cafes and hotels). If the account is stolen, please contact 24-hour online customer service, customer service staff will help you take necessary measures to recover the stolen account."
                },
                {
                    "title": "The account has been stolen. Is the account fund safe? ",
                    "content": "Security. The bank info that the player opens an account when setting is not allowed to change (unless examine manually), this foreign even if account is stolen also cannot transfer money. "
                }
            ]
        }
    ]
}
